Nombre;Apellido;Email;Estado
Andres;Viscaino;espardadante@gmail.com;Activo
Jessica;Panama;china_kpanama5@hotmail.com;Activo
Adriana;Castillo;castilloadriana095@gmail.com;Activo
Jessica;Rocano;jess_steph@hotmail.com;Activo
