"Nombres","Reaccion","link perfil"
Adriana Castillo,Me gusta,https://www.facebook.com/acastill0c
Mayra Llanos,Me entristece,https://www.facebook.com/mayra.llanos.37
Karina Panama,Me divierte,https://www.facebook.com/Amy.adlen
